SPS 502 | Data Science - SPS 502 - Homework 1
…
Question 6

Which is the most dangerous month? Let’s create a new dataframe that groups accidents by month then create a line graph to visualize the data. Try writing the code yourself this time. (HINT: the code is nearly identical to the three codeblocks above).

Accidents by time of day

Let’s see what the worst time of day is for accidents.

We have the hour of the crash recorded in the variable Hour, which lists the hour from 0 to 23.

idaho_crashes_clean %>% 
  count(Hour, sort = TRUE)

# A tibble: 24 × 2
    Hour     n
   <int> <int>
 1    17 25822
 2    16 24816
 3    15 24368
 4    12 19454
 5    14 19305
 6    18 18277
 7    13 18230
 8    11 15617
 9     7 15519
10     8 14967
# ℹ 14 more rows
…
