Data Wrangling – SPS 509 | Advanced Quantitative Methods
…
filter() to select a subset of rows

for crashes in Canyon county

idaho_crashes %>%
  filter(County == "Canyon") 

# A tibble: 35,492 × 12
   OBJECTID Severity            Mile_Point  Year County Number_Of_Fatalities
      <dbl> <chr>                    <dbl> <dbl> <chr>                 <dbl>
 1    20294 Property Dmg Report      0.004  2005 Canyon                    0
 2    21886 Property Dmg Report      5.25   2005 Canyon                    0
 3    26693 Property Dmg Report     NA      2005 Canyon                    0
 4    18673 Property Dmg Report      9.27   2005 Canyon                    0
 5    17678 Property Dmg Report     NA      2005 Canyon                    0
 6    17287 B Injury Accident       NA      2005 Canyon                    0
 7    26710 Property Dmg Report     NA      2005 Canyon                    0
 8    19529 Property Dmg Report     39      2005 Canyon                    0
 9    20899 B Injury Accident       50.0    2005 Canyon                    0
10    19655 B Injury Accident       23.5    2005 Canyon                    0
# ℹ 35,482 more rows
# ℹ 6 more variables: Number_Of_Injuries <dbl>, IntersectionRelated <chr>,
#   Accident_Date_Time <dttm>, Hour <int>, Month <ord>, Day <ord>

dbl = numerical chr = text data See moderndive 1.4.3 for more info

filter() for many conditions at once

for crashes in Canyon county in 2017

idaho_crashes %>%
  filter(County == "Canyon", Year == 2017) 

# A tibble: 3,191 × 12
   OBJECTID Severity            Mile_Point  Year County Number_Of_Fatalities
      <dbl> <chr>                    <dbl> <dbl> <chr>                 <dbl>
 1   295441 B Injury Accident         4.32  2017 Canyon                    0
 2   288513 Fatal Accident           31.1   2017 Canyon                    1
 3   293711 Property Dmg Report      31.1   2017 Canyon                    0
 4   291456 Property Dmg Report     105.    2017 Canyon                    0
 5   306112 C Injury Accident        31.5   2017 Canyon                    0
 6   299918 A Injury Accident        11.2   2017 Canyon                    0
 7   295624 C Injury Accident        31.2   2017 Canyon                    0
 8   304753 Property Dmg Report      59.3   2017 Canyon                    0
 9   293682 Property Dmg Report       3.03  2017 Canyon                    0
10   292901 Property Dmg Report      28.8   2017 Canyon                    0
# ℹ 3,181 more rows
# ℹ 6 more variables: Number_Of_Injuries <dbl>, IntersectionRelated <chr>,
#   Accident_Date_Time <dttm>, Hour <int>, Month <ord>, Day <ord>

select() to keep variables

idaho_crashes %>%
  filter(County == "Canyon", Year == 2017) %>% 
  select(IntersectionRelated, Number_Of_Injuries)

# A tibble: 3,191 × 2
   IntersectionRelated Number_Of_Injuries
   <chr>                            <dbl>
 1 N                                    1
 2 N                                    1
 3 N                                    0
 4 Y                                    0
 5 N                                    1
 6 N                                    1
 7 N                                    1
 8 Y                                    0
 9 Y                                    0
10 N                                    0
# ℹ 3,181 more rows

select() to exclude variables

idaho_crashes %>% 
  select(-OBJECTID)

# A tibble: 299,135 × 11
   Severity      Mile_Point  Year County Number_Of_Fatalities Number_Of_Injuries
   <chr>              <dbl> <dbl> <chr>                 <dbl>              <dbl>
 1 Property Dmg…    270.     2005 Oneida                    0                  0
 2 Property Dmg…      0.004  2005 Canyon                    0                  0
 3 Property Dmg…      5.25   2005 Canyon                    0                  0
 4 Property Dmg…      4.6    2005 Twin …                    0                  0
 5 C Injury Acc…      1.62   2005 Koote…                    0                  2
 6 Property Dmg…     20.5    2005 Ada                       0                  0
 7 Property Dmg…     NA      2005 Canyon                    0                  0
 8 Property Dmg…     NA      2005 Latah                     0                  0
 9 Property Dmg…     NA      2005 Koote…                    0                  0
10 Property Dmg…     NA      2005 Bonne…                    0                  0
# ℹ 299,125 more rows
# ℹ 5 more variables: IntersectionRelated <chr>, Accident_Date_Time <dttm>,
#   Hour <int>, Month <ord>, Day <ord>

select() a range of variables

idaho_crashes %>% 
  select(Severity:Mile_Point)

# A tibble: 299,135 × 2
   Severity            Mile_Point
   <chr>                    <dbl>
 1 Property Dmg Report    270.   
 2 Property Dmg Report      0.004
 3 Property Dmg Report      5.25 
 4 Property Dmg Report      4.6  
 5 C Injury Accident        1.62 
 6 Property Dmg Report     20.5  
 7 Property Dmg Report     NA    
 8 Property Dmg Report     NA    
 9 Property Dmg Report     NA    
10 Property Dmg Report     NA    
# ℹ 299,125 more rows
…
mutate() to add new variables

idaho_crashes %>% 
  mutate(total_inj_fat = Number_Of_Injuries + Number_Of_Fatalities)

# A tibble: 299,135 × 13
   OBJECTID Severity            Mile_Point  Year County     Number_Of_Fatalities
      <dbl> <chr>                    <dbl> <dbl> <chr>                     <dbl>
 1    17633 Property Dmg Report    270.     2005 Oneida                        0
 2    20294 Property Dmg Report      0.004  2005 Canyon                        0
 3    21886 Property Dmg Report      5.25   2005 Canyon                        0
 4    22038 Property Dmg Report      4.6    2005 Twin Falls                    0
 5    18025 C Injury Accident        1.62   2005 Kootenai                      0
 6    19661 Property Dmg Report     20.5    2005 Ada                           0
 7    26693 Property Dmg Report     NA      2005 Canyon                        0
 8    18787 Property Dmg Report     NA      2005 Latah                         0
 9    19633 Property Dmg Report     NA      2005 Kootenai                      0
10    22197 Property Dmg Report     NA      2005 Bonneville                    0
# ℹ 299,125 more rows
# ℹ 7 more variables: Number_Of_Injuries <dbl>, IntersectionRelated <chr>,
#   Accident_Date_Time <dttm>, Hour <int>, Month <ord>, Day <ord>,
#   total_inj_fat <dbl>
…
